UID        PID  PPID  C STIME TTY          TIME CMD
root         1     0  0 08:47 ?        00:00:06 /sbin/init splash
root         2     0  0 08:47 ?        00:00:00 [kthreadd]
root         4     2  0 08:47 ?        00:00:00 [kworker/0:0H]
root         6     2  0 08:47 ?        00:00:00 [mm_percpu_wq]
root         7     2  0 08:47 ?        00:00:00 [ksoftirqd/0]
root         8     2  0 08:47 ?        00:00:02 [rcu_sched]
root         9     2  0 08:47 ?        00:00:00 [rcu_bh]
root        10     2  0 08:47 ?        00:00:00 [migration/0]
root        11     2  0 08:47 ?        00:00:00 [watchdog/0]
root        12     2  0 08:47 ?        00:00:00 [cpuhp/0]
root        13     2  0 08:47 ?        00:00:00 [cpuhp/1]
root        14     2  0 08:47 ?        00:00:00 [watchdog/1]
root        15     2  0 08:47 ?        00:00:00 [migration/1]
root        16     2  0 08:47 ?        00:00:00 [ksoftirqd/1]
root        18     2  0 08:47 ?        00:00:00 [kworker/1:0H]
root        19     2  0 08:47 ?        00:00:00 [cpuhp/2]
root        20     2  0 08:47 ?        00:00:00 [watchdog/2]
root        21     2  0 08:47 ?        00:00:00 [migration/2]
root        22     2  0 08:47 ?        00:00:00 [ksoftirqd/2]
root        24     2  0 08:47 ?        00:00:00 [kworker/2:0H]
root        25     2  0 08:47 ?        00:00:00 [cpuhp/3]
root        26     2  0 08:47 ?        00:00:00 [watchdog/3]
root        27     2  0 08:47 ?        00:00:00 [migration/3]
root        28     2  0 08:47 ?        00:00:00 [ksoftirqd/3]
root        30     2  0 08:47 ?        00:00:00 [kworker/3:0H]
root        31     2  0 08:47 ?        00:00:00 [kdevtmpfs]
root        32     2  0 08:47 ?        00:00:00 [netns]
root        33     2  0 08:47 ?        00:00:00 [rcu_tasks_kthre]
root        34     2  0 08:47 ?        00:00:00 [kauditd]
root        35     2  0 08:47 ?        00:00:00 [kworker/0:1]
root        36     2  0 08:47 ?        00:00:00 [khungtaskd]
root        37     2  0 08:47 ?        00:00:00 [oom_reaper]
root        38     2  0 08:47 ?        00:00:00 [writeback]
root        39     2  0 08:47 ?        00:00:00 [kcompactd0]
root        40     2  0 08:47 ?        00:00:00 [ksmd]
root        41     2  0 08:47 ?        00:00:00 [khugepaged]
root        42     2  0 08:47 ?        00:00:00 [crypto]
root        43     2  0 08:47 ?        00:00:00 [kintegrityd]
root        44     2  0 08:47 ?        00:00:00 [kblockd]
root        45     2  0 08:47 ?        00:00:00 [ata_sff]
root        46     2  0 08:47 ?        00:00:00 [md]
root        47     2  0 08:47 ?        00:00:00 [edac-poller]
root        48     2  0 08:47 ?        00:00:00 [devfreq_wq]
root        49     2  0 08:47 ?        00:00:00 [watchdogd]
root        51     2  0 08:47 ?        00:00:00 [kworker/1:1]
root        53     2  0 08:47 ?        00:00:00 [kworker/3:1]
root        55     2  0 08:47 ?        00:00:00 [kswapd0]
root        56     2  0 08:47 ?        00:00:00 [ecryptfs-kthrea]
root        98     2  0 08:47 ?        00:00:00 [kthrotld]
root        99     2  0 08:47 ?        00:00:00 [acpi_thermal_pm]
root       100     2  0 08:47 ?        00:00:00 [scsi_eh_0]
root       101     2  0 08:47 ?        00:00:00 [scsi_tmf_0]
root       102     2  0 08:47 ?        00:00:00 [scsi_eh_1]
root       103     2  0 08:47 ?        00:00:00 [scsi_tmf_1]
root       110     2  0 08:47 ?        00:00:00 [ipv6_addrconf]
root       119     2  0 08:47 ?        00:00:00 [kstrp]
root       136     2  0 08:47 ?        00:00:00 [charger_manager]
root       195     2  0 08:47 ?        00:00:00 [scsi_eh_2]
root       196     2  0 08:47 ?        00:00:00 [scsi_tmf_2]
root       197     2  0 08:47 ?        00:00:00 [kworker/1:1H]
root       199     2  0 08:47 ?        00:00:00 [kworker/0:1H]
root       209     2  0 08:47 ?        00:00:00 [kworker/3:1H]
root       220     2  0 08:47 ?        00:00:00 [kworker/2:1H]
root       221     2  0 08:47 ?        00:00:00 [jbd2/sda1-8]
root       222     2  0 08:47 ?        00:00:00 [ext4-rsv-conver]
root       258     1  0 08:47 ?        00:00:00 /lib/systemd/systemd-journald
root       274     1  0 08:47 ?        00:00:00 /lib/systemd/systemd-udevd
root       318     2  0 08:47 ?        00:00:00 [loop0]
root       324     2  0 08:47 ?        00:00:00 [loop1]
root       325     2  0 08:47 ?        00:00:00 [loop2]
root       326     2  0 08:47 ?        00:00:00 [loop3]
root       328     2  0 08:47 ?        00:00:00 [loop4]
root       329     2  0 08:47 ?        00:00:00 [loop5]
root       330     2  0 08:47 ?        00:00:00 [loop6]
root       331     2  0 08:47 ?        00:00:00 [loop7]
root       332     2  0 08:47 ?        00:00:00 [loop8]
root       333     2  0 08:47 ?        00:00:00 [loop9]
root       334     2  0 08:47 ?        00:00:00 [loop10]
root       341     2  0 08:47 ?        00:00:00 [loop11]
root       342     2  0 08:47 ?        00:00:00 [loop12]
root       343     2  0 08:47 ?        00:00:00 [loop13]
root       345     2  0 08:47 ?        00:00:00 [loop14]
root       346     2  0 08:47 ?        00:00:00 [loop15]
root       348     2  0 08:47 ?        00:00:09 [kworker/2:2]
root       349     2  0 08:47 ?        00:00:00 [loop16]
systemd+   384     1  0 08:47 ?        00:00:00 /lib/systemd/systemd-resolved
root       389     2  0 08:47 ?        00:00:00 [iprt-VBoxWQueue]
root       451     2  0 08:47 ?        00:00:00 [ttm_swap]
root       552     2  0 10:00 ?        00:00:00 [kworker/2:0]
root       604     1  0 08:47 ?        00:00:00 /usr/lib/udisks2/udisksd
root       610     1  0 08:47 ?        00:00:00 /lib/systemd/systemd-logind
root       611     1  0 08:47 ?        00:00:00 /usr/sbin/cron -f
syslog     613     1  0 08:47 ?        00:00:00 /usr/sbin/rsyslogd -n
avahi      621     1  0 08:47 ?        00:00:00 avahi-daemon: running [vbox1804.local]
root       622     1  0 08:47 ?        00:00:01 /usr/sbin/irqbalance --foreground
root       624     1  0 08:47 ?        00:00:00 /usr/sbin/ModemManager
message+   628     1  0 08:47 ?        00:00:03 /usr/bin/dbus-daemon --system --address=systemd: --nofork --nopidfile --systemd-activation --syslog-only
avahi      638   621  0 08:47 ?        00:00:00 avahi-daemon: chroot helper
root       690     1  0 08:47 ?        00:00:00 /sbin/wpa_supplicant -u -s -O /run/wpa_supplicant
root       691     1  0 08:47 ?        00:00:00 /usr/sbin/NetworkManager --no-daemon
root       695     1  0 08:47 ?        00:00:01 /usr/sbin/acpid
root       696     1  0 08:47 ?        00:00:00 /usr/lib/accountsservice/accounts-daemon
root       697     1  0 08:47 ?        00:00:00 /usr/bin/python3 /usr/bin/networkd-dispatcher
root       698     1  0 08:47 ?        00:00:02 /usr/lib/snapd/snapd
root       713     1  0 08:47 ?        00:00:00 /usr/lib/policykit-1/polkitd --no-debug
root       811     1  0 08:47 ?        00:00:06 /usr/sbin/VBoxService --pidfile /var/run/vboxadd-service.sh
root       852     1  0 08:47 ?        00:00:00 /usr/sbin/gdm3
root       853   691  0 08:47 ?        00:00:00 /sbin/dhclient -d -q -sf /usr/lib/NetworkManager/nm-dhcp-helper -pf /run/dhclient-enp0s3.pid -lf /var/lib/NetworkManager/dhclient-2419a0ee-1e29-3f5c-9e37-74941a9ef2d5-enp0s3.lease -cf /var/lib/NetworkManager/dhclient-enp0s3.conf enp0s3
root       864   852  0 08:47 ?        00:00:00 gdm-session-worker [pam/gdm-autologin]
whoopsie   896     1  0 08:47 ?        00:00:00 /usr/bin/whoopsie -f
kernoops   898     1  0 08:47 ?        00:00:00 /usr/sbin/kerneloops --test
kernoops   900     1  0 08:47 ?        00:00:00 /usr/sbin/kerneloops
jens       906     1  0 08:47 ?        00:00:00 /lib/systemd/systemd --user
jens       911   906  0 08:47 ?        00:00:00 (sd-pam)
jens       969     1  0 08:47 ?        00:00:00 /usr/bin/gnome-keyring-daemon --daemonize --login
jens       973   864  0 08:47 tty1     00:00:00 /usr/lib/gdm3/gdm-x-session --run-script env GNOME_SHELL_SESSION_MODE=ubuntu gnome-session --session=ubuntu
jens       976   973  3 08:47 tty1     00:12:17 /usr/lib/xorg/Xorg vt1 -displayfd 3 -auth /run/user/1000/gdm/Xauthority -background none -noreset -keeptty -verbose 3
jens      1013   906  0 08:47 ?        00:00:00 /usr/bin/dbus-daemon --session --address=systemd: --nofork --nopidfile --systemd-activation --syslog-only
jens      1016   973  0 08:47 tty1     00:00:00 /usr/lib/gnome-session/gnome-session-binary --session=ubuntu
jens      1163     1  0 08:47 ?        00:00:00 /usr/bin/VBoxClient --clipboard
jens      1164  1163  0 08:47 ?        00:00:00 /usr/bin/VBoxClient --clipboard
jens      1173     1  0 08:47 ?        00:00:00 /usr/bin/VBoxClient --display
jens      1175  1173  0 08:47 ?        00:00:00 /usr/bin/VBoxClient --display
jens      1180     1  0 08:47 ?        00:00:00 /usr/bin/VBoxClient --seamless
jens      1181  1180  0 08:47 ?        00:00:00 /usr/bin/VBoxClient --seamless
jens      1193     1  0 08:47 ?        00:00:00 /usr/bin/VBoxClient --draganddrop
jens      1194  1193  0 08:47 ?        00:00:43 /usr/bin/VBoxClient --draganddrop
jens      1205  1016  0 08:47 ?        00:00:00 /usr/bin/ssh-agent /usr/bin/im-launch env GNOME_SHELL_SESSION_MODE=ubuntu gnome-session --session=ubuntu
jens      1208   906  0 08:47 ?        00:00:00 /usr/lib/gvfs/gvfsd
jens      1214   906  0 08:47 ?        00:00:00 /usr/lib/gvfs/gvfsd-fuse /run/user/1000/gvfs -f -o big_writes
jens      1227   906  0 08:47 ?        00:00:00 /usr/lib/at-spi2-core/at-spi-bus-launcher
jens      1232  1227  0 08:47 ?        00:00:00 /usr/bin/dbus-daemon --config-file=/usr/share/defaults/at-spi2/accessibility.conf --nofork --print-address 3
jens      1235   906  0 08:47 ?        00:00:03 /usr/lib/at-spi2-core/at-spi2-registryd --use-gnome-session
root      1264     2  0 11:04 ?        00:00:00 [kworker/0:2]
jens      1323  1016 20 08:47 tty1     01:22:56 /usr/bin/gnome-shell
root      1383     1  0 08:47 ?        00:00:00 /usr/lib/upower/upowerd
jens      1494     1  0 08:47 ?        00:00:00 /usr/bin/pulseaudio --start --log-target=syslog
rtkit     1495     1  0 08:47 ?        00:00:00 /usr/lib/rtkit/rtkit-daemon
root      1510     1  0 08:47 ?        00:00:18 /usr/lib/packagekit/packagekitd
jens      1784  1323  0 08:47 tty1     00:00:15 ibus-daemon --xim --panel disable
jens      1788  1784  0 08:47 tty1     00:00:00 /usr/lib/ibus/ibus-dconf
jens      1790     1  0 08:47 tty1     00:00:09 /usr/lib/ibus/ibus-x11 --kill-daemon
jens      1794   906  0 08:47 ?        00:00:00 /usr/lib/ibus/ibus-portal
jens      1803   906  0 08:47 ?        00:00:00 /usr/lib/gnome-shell/gnome-shell-calendar-server
jens      1807   906  0 08:47 ?        00:00:00 /usr/lib/evolution/evolution-source-registry
jens      1815   906  0 08:47 ?        00:00:00 /usr/lib/gnome-online-accounts/goa-daemon
root      1822     1  0 08:47 ?        00:00:00 /usr/lib/x86_64-linux-gnu/boltd
jens      1827   906  0 08:47 ?        00:00:00 /usr/lib/gnome-online-accounts/goa-identity-service
jens      1838   906  0 08:47 ?        00:00:00 /usr/lib/gvfs/gvfs-udisks2-volume-monitor
jens      1842   906  0 08:47 ?        00:00:00 /usr/lib/gvfs/gvfs-gphoto2-volume-monitor
jens      1846   906  0 08:47 ?        00:00:00 /usr/lib/gvfs/gvfs-mtp-volume-monitor
jens      1850   906  0 08:47 ?        00:00:00 /usr/lib/gvfs/gvfs-goa-volume-monitor
jens      1854   906  0 08:47 ?        00:00:00 /usr/lib/gvfs/gvfs-afc-volume-monitor
jens      1859  1016  0 08:47 tty1     00:00:01 /usr/lib/gnome-settings-daemon/gsd-power
jens      1860  1016  0 08:47 tty1     00:00:00 /usr/lib/gnome-settings-daemon/gsd-print-notifications
jens      1862  1016  0 08:47 tty1     00:00:00 /usr/lib/gnome-settings-daemon/gsd-rfkill
jens      1865  1016  0 08:47 tty1     00:00:00 /usr/lib/gnome-settings-daemon/gsd-screensaver-proxy
jens      1868  1016  0 08:47 tty1     00:00:00 /usr/lib/gnome-settings-daemon/gsd-sharing
jens      1876  1016  0 08:47 tty1     00:00:01 /usr/lib/gnome-settings-daemon/gsd-xsettings
jens      1879  1016  0 08:47 tty1     00:00:01 /usr/lib/gnome-settings-daemon/gsd-wacom
jens      1882  1016  0 08:47 tty1     00:00:00 /usr/lib/gnome-settings-daemon/gsd-smartcard
jens      1885  1016  0 08:47 tty1     00:00:00 /usr/lib/gnome-settings-daemon/gsd-sound
jens      1893  1016  0 08:47 tty1     00:00:00 /usr/lib/gnome-settings-daemon/gsd-a11y-settings
jens      1896  1016  0 08:47 tty1     00:00:01 /usr/lib/gnome-settings-daemon/gsd-clipboard
jens      1899  1016  0 08:47 tty1     00:00:04 /usr/lib/gnome-settings-daemon/gsd-color
jens      1900  1016  0 08:47 tty1     00:00:00 /usr/lib/gnome-settings-daemon/gsd-datetime
jens      1901  1016  0 08:47 tty1     00:00:00 /usr/lib/gnome-settings-daemon/gsd-housekeeping
jens      1902  1016  0 08:47 tty1     00:00:01 /usr/lib/gnome-settings-daemon/gsd-keyboard
jens      1903  1016  0 08:47 tty1     00:00:01 /usr/lib/gnome-settings-daemon/gsd-media-keys
jens      1913  1016  0 08:47 tty1     00:00:00 /usr/lib/gnome-settings-daemon/gsd-mouse
jens      1930     1  0 08:47 tty1     00:00:00 /usr/lib/gnome-settings-daemon/gsd-printer
colord    1932     1  0 08:47 ?        00:00:00 /usr/lib/colord/colord
jens      1969  1016  0 08:47 tty1     00:00:11 nautilus-desktop
jens      1971  1016  0 08:47 tty1     00:00:08 /usr/bin/gnome-software --gapplication-service
jens      1977  1016  0 08:47 tty1     00:00:00 /usr/lib/gnome-disk-utility/gsd-disk-utility-notify
jens      1985  1208  0 08:47 ?        00:00:00 /usr/lib/gvfs/gvfsd-trash --spawner :1.7 /org/gtk/gvfs/exec_spaw/0
jens      2021   906  0 08:47 ?        00:00:00 /usr/lib/evolution/evolution-calendar-factory
jens      2035   906  0 08:47 ?        00:00:00 /usr/lib/dconf/dconf-service
jens      2061  2021  0 08:47 ?        00:00:00 /usr/lib/evolution/evolution-calendar-factory-subprocess --factory all --bus-name org.gnome.evolution.dataserver.Subprocess.Backend.Calendarx2021x2 --own-path /org/gnome/evolution/dataserver/Subprocess/Backend/Calendar/2021/2
jens      2064  1784  0 08:47 tty1     00:00:04 /usr/lib/ibus/ibus-engine-simple
jens      2088   906  0 08:47 ?        00:00:00 /usr/lib/evolution/evolution-addressbook-factory
jens      2098  2088  0 08:47 ?        00:00:00 /usr/lib/evolution/evolution-addressbook-factory-subprocess --factory all --bus-name org.gnome.evolution.dataserver.Subprocess.Backend.AddressBookx2088x2 --own-path /org/gnome/evolution/dataserver/Subprocess/Backend/AddressBook/2088/2
jens      2113   906  0 08:47 ?        00:00:00 /usr/lib/gvfs/gvfsd-metadata
root      2120     1  0 08:47 ?        00:00:01 /usr/lib/fwupd/fwupd
jens      2282   906  0 08:48 ?        00:00:12 /usr/bin/nautilus --gapplication-service
jens      2302  1016  0 08:48 tty1     00:00:01 update-notifier
jens      2323  1323  0 08:48 tty1     00:00:00 /bin/sh /snap/clion/22/bin/clion.sh
jens      2389  2323 15 08:48 tty1     01:02:18 /snap/clion/22/jre64/bin/java -classpath /snap/clion/22/lib/bootstrap.jar:/snap/clion/22/lib/extensions.jar:/snap/clion/22/lib/util.jar:/snap/clion/22/lib/jdom.jar:/snap/clion/22/lib/log4j.jar:/snap/clion/22/lib/trove4j.jar:/snap/clion/22/lib/jna.jar -Xss2m -Xms256m -Xmx2000m -XX:NewSize=128m -XX:MaxNewSize=128m -XX:ReservedCodeCacheSize=240m -XX:+UseConcMarkSweepGC -XX:SoftRefLRUPolicyMSPerMB=50 -ea -Dsun.io.useCanonCaches=false -Djava.net.preferIPv4Stack=true -XX:+HeapDumpOnOutOfMemoryError -XX:-OmitStackTraceInFastThrow -Dawt.useSystemAAFontSettings=lcd -Dsun.java2d.renderer=sun.java2d.marlin.MarlinRenderingEngine -XX:ErrorFile=/home/jens/java_error_in_CL_%p.log -XX:HeapDumpPath=/home/jens/java_error_in_CL.hprof -Didea.paths.selector=CLion2018.1 -Djb.vmOptionsFile=/snap/clion/22/bin/clion64.vmoptions -Didea.platform.prefix=CLion com.intellij.idea.Main
jens      2437  2389  0 08:48 tty1     00:00:02 /snap/clion/22/bin/fsnotifier64
root      2914     1  0 08:52 ?        00:00:00 /usr/sbin/cupsd -l
root      2915     1  0 08:52 ?        00:00:00 /usr/sbin/cups-browsed
jens      3113   969  0 08:58 ?        00:00:00 /usr/bin/ssh-agent -D -a /run/user/1000/keyring/.ssh
root      3136     2  0 09:02 ?        00:00:00 [kworker/1:2]
root      5762     2  0 13:46 ?        00:00:00 [kworker/u8:0]
root      5964     2  0 14:03 ?        00:00:00 [kworker/3:0]
root      5981     2  0 14:25 ?        00:00:00 [kworker/u8:1]
root      6007     2  0 14:51 ?        00:00:00 [kworker/u8:3]
jens      6778  2389  0 15:12 pts/0    00:00:00 /bin/bash --rcfile /snap/clion/22/plugins/terminal/jediterm-bash.in -i
jens      6985   906  0 15:15 ?        00:00:00 /usr/lib/gnome-terminal/gnome-terminal-server
jens      6995  6985  0 15:15 pts/1    00:00:00 bash
jens      7224  2389  0 15:23 tty1     00:00:00 /home/jens/Courses/cxx/cxx-systems-programming/gitlab/cxx-systems-programming/solutions/2-io/2.2-file-system/cmake-build-debug/ps-redirect
jens      7226  7224  0 15:23 tty1     00:00:00 ps -ef
